[gd_scene load_steps=3 format=2]

[ext_resource path="res://entities/actors/player/PlayerBase.tscn" type="PackedScene" id=1]
[ext_resource path="res://entities/components/inventory/Inventory.tscn" type="PackedScene" id=2]

[node name="PlayerBase" instance=ExtResource( 1 )]

[node name="Inventory" parent="." index="9" instance=ExtResource( 2 )]

has_basic_umbrella = true
has_heavy_umbrella = true


